hgemv/CAmodel/model/core0_wave.vcd
$date
    Dec 11, 2023       00:51:49
$end

$version
    vcd_version : 1
$end

$timescale
    1 tick
$end

$scope module AiCore $end
$scope module fixp $end
$var wire    1  aaaaa  fixp_l0c_read       $end
$var wire    1  aaaan  fixp_su_busy       $end
$upscope $end
$scope module suv0 $end
$var wire    1  aaaab  suv0_busy       $end
$upscope $end
$scope module mte $end
$var wire    1  aaaac  mte3_su_busy       $end
$var wire    1  aaaai  mte3_suv0_busy       $end
$var wire    1  aaaaj  mte3_suv1_busy       $end
$var wire    1  aaaal  mte1_su_busy       $end
$var wire    1  aaaam  mte2_su_busy       $end
$var wire    1  aaaap  mte2_suv0_busy       $end
$var wire    1  aaaaq  mte2_suv1_busy       $end
$upscope $end
$scope module vec0 $end
$var wire    1  aaaad  vec0_ub_write       $end
$var wire    1  aaaaf  vec0_busy       $end
$upscope $end
$scope module cube $end
$var wire    1  aaaae  cube_busy       $end
$upscope $end
$scope module vec1 $end
$var wire    1  aaaag  vec1_busy       $end
$var wire    1  aaaah  vec1_ub_write       $end
$upscope $end
$scope module suv1 $end
$var wire    1  aaaak  suv1_busy       $end
$upscope $end
$scope module su $end
$var wire    1  aaaao  su_busy       $end
$upscope $end
$upscope $end
$enddefinitions  $end

$comment
    all initial values are dumped below at time : tick = 0
$end
$dumpvars
0aaaaa
0aaaab
0aaaac
0aaaad
0aaaae
0aaaaf
0aaaag
0aaaah
0aaaai
0aaaaj
0aaaak
0aaaal
0aaaam
0aaaan
0aaaao
0aaaap
0aaaaq
$end

#1019
1aaaao
#1026
0aaaao
#1027
1aaaao
#1032
0aaaao
#1033
1aaaao
#1398
0aaaao
#1399
1aaaao
#1409
1aaaal
1aaaam
#1414
0aaaal
0aaaam
1aaaan
#1419
0aaaan
#2153
0aaaao
#2215
1aaaao
#2536
0aaaao
#2612
1aaaao
#2631
0aaaao
#2632
1aaaao
#2659
0aaaao
#2660
1aaaao
#2661
0aaaao
#2662
1aaaao
#2683
0aaaao
#2684
1aaaao
#2685
0aaaao
#2686
1aaaao
#2692
0aaaao
#2693
1aaaao
#2698
0aaaao
#2699
1aaaao
#2721
0aaaao
#2722
1aaaao
#2723
0aaaao
#2724
1aaaao
#2732
0aaaao
#2733
1aaaao
#2738
0aaaao
#2739
1aaaao
#2745
0aaaao
#2746
1aaaao
#2752
0aaaao
#2753
1aaaao
#2847
0aaaao
#3159
1aaaao
#3251
0aaaao
#3252
1aaaao
#3299
0aaaao
#3580
1aaaao
#3585
0aaaao
#3586
1aaaao
#3636
0aaaao
#3637
1aaaam
1aaaao
#3642
0aaaao
#3643
1aaaao
#3645
0aaaao
#3998
1aaaao
#4010
0aaaao
#4362
1aaaao
#4364
0aaaao
#4366
1aaaao
#4376
0aaaao
#4377
1aaaao
#4416
0aaaao
#4768
1aaaao
#4773
0aaaao
#4774
1aaaao
#4781
0aaaao
#4782
1aaaao
#4783
0aaaao
#4784
1aaaao
#4785
0aaaao
#4786
1aaaao
#4798
0aaaao
#4799
1aaaao
#4801
0aaaao
#4802
1aaaao
#4806
1aaaal
0aaaao
#4812
1aaaao
#4813
0aaaao
#4814
1aaaao
#4818
0aaaao
#4824
1aaaao
#4825
0aaaao
#4826
1aaaao
#4830
0aaaao
#4836
1aaaao
#4837
0aaaao
#4838
1aaaao
#4842
0aaaao
#4848
1aaaao
#4849
0aaaao
#4850
1aaaao
#4854
0aaaao
#4860
1aaaao
#4861
0aaaao
#4862
1aaaao
#4866
0aaaao
#4872
1aaaao
#4873
0aaaao
#4874
1aaaao
#4878
0aaaao
#4884
1aaaao
#4885
0aaaao
#4886
1aaaao
#4890
0aaaao
#4897
1aaaao
#4898
0aaaao
#5090
0aaaal
#5257
1aaaao
#5258
0aaaao
#5259
1aaaao
#5266
0aaaao
#5267
1aaaao
#5274
0aaaao
#5275
1aaaao
#5279
0aaaao
#5286
1aaaao
#5287
0aaaao
#5288
1aaaao
#5292
0aaaao
#5299
1aaaao
#5300
0aaaao
#5301
1aaaao
#5305
0aaaao
#5312
1aaaao
#5313
0aaaao
#5314
1aaaao
#5318
0aaaao
#5325
1aaaao
#5326
0aaaao
#5327
1aaaao
#5331
0aaaao
#5338
1aaaao
#5339
0aaaao
#5340
1aaaao
#5344
0aaaao
#5351
1aaaao
#5352
0aaaao
#5353
1aaaao
#5357
0aaaao
#5364
1aaaao
#5365
0aaaao
#5366
1aaaao
#5370
0aaaao
#5376
1aaaao
#5377
0aaaao
#5382
1aaaao
#5387
0aaaao
#5388
1aaaao
#5391
0aaaao
#5392
1aaaao
#5397
0aaaao
#5399
0aaaam
#5400
1aaaal
1aaaao
#5405
0aaaao
#5406
1aaaao
#5413
0aaaao
#5414
1aaaao
#5421
0aaaao
#5425
1aaaao
#5426
0aaaao
#5427
1aaaao
#5467
0aaaao
#5468
1aaaao
#5475
0aaaao
#5476
1aaaao
#5477
0aaaao
#5478
1aaaao
#5479
0aaaao
#5480
1aaaao
#5492
0aaaao
#5493
1aaaao
#5495
0aaaao
#5496
1aaaao
#5500
0aaaao
#5506
1aaaao
#5507
0aaaao
#5508
1aaaao
#5512
0aaaao
#5518
1aaaao
#5519
0aaaao
#5520
1aaaao
#5524
0aaaao
#5530
1aaaao
#5531
0aaaao
#5532
1aaaao
#5536
0aaaao
#5542
1aaaao
#5543
0aaaao
#5544
1aaaao
#5548
0aaaao
#5554
1aaaao
#5555
0aaaao
#5556
1aaaao
#5560
0aaaao
#5566
1aaaao
#5567
0aaaao
#5568
1aaaao
#5572
0aaaao
#5578
1aaaao
#5579
0aaaao
#5580
1aaaao
#5584
0aaaao
#5591
1aaaao
#5592
0aaaao
#5593
1aaaao
#5594
0aaaao
#5599
1aaaao
#5606
0aaaao
#5607
1aaaao
#5614
0aaaao
#5615
1aaaao
#5619
0aaaao
#5626
1aaaao
#5627
0aaaao
#5628
1aaaao
#5632
0aaaao
#5639
1aaaao
#5640
0aaaao
#5641
1aaaao
#5645
0aaaao
#5652
1aaaao
#5653
0aaaao
#5654
1aaaao
#5658
0aaaao
#5665
1aaaao
#5666
0aaaao
#5667
1aaaao
#5671
0aaaao
#5678
1aaaao
#5679
0aaaao
#5680
1aaaao
#5684
0aaaao
#5685
1aaaae
#5691
1aaaao
#5692
0aaaao
#5693
1aaaao
#5697
0aaaao
#5704
1aaaao
#5705
0aaaao
#5706
1aaaao
#5710
0aaaao
#5716
1aaaao
#5717
0aaaao
#5718
1aaaao
#5723
0aaaao
#5724
1aaaao
#5727
0aaaao
#5733
1aaaao
#5738
0aaaao
#5739
1aaaao
#5746
0aaaao
#5747
1aaaao
#5754
0aaaao
#5763
1aaaao
#5783
0aaaao
#5784
1aaaao
#5785
0aaaao
#5786
1aaaao
#5791
0aaaao
#5792
1aaaao
#5807
0aaaao
#5808
1aaaao
#5861
0aaaao
#5862
1aaaao
#5864
0aaaao
#5869
1aaaao
#5874
0aaaao
#5875
1aaaao
#5877
0aaaao
#5882
1aaaao
#5889
0aaaao
#5890
1aaaam
1aaaao
#5895
0aaaao
#5896
1aaaao
#5898
0aaaao
#5902
1aaaao
#5914
0aaaao
#5916
1aaaao
#5918
0aaaao
#5919
1aaaao
#5929
0aaaao
#5930
1aaaao
#5974
0aaaao
#5975
1aaaao
#5976
0aaaao
#5977
1aaaao
#5978
0aaaao
#5979
1aaaao
#5991
0aaaao
#5992
1aaaao
#5994
0aaaao
#5995
1aaaao
#5999
0aaaao
#6005
1aaaao
#6006
0aaaao
#6007
1aaaao
#6011
0aaaao
#6017
1aaaao
#6018
0aaaao
#6019
1aaaao
#6023
0aaaao
#6029
1aaaao
#6030
0aaaao
#6031
1aaaao
#6035
0aaaao
#6041
1aaaao
#6042
0aaaao
#6043
1aaaao
#6047
0aaaao
#6053
1aaaao
#6054
0aaaao
#6055
1aaaao
#6059
0aaaao
#6065
1aaaao
#6066
0aaaao
#6067
1aaaao
#6071
0aaaao
#6073
0aaaal
#6077
1aaaao
#6078
0aaaao
#6079
1aaaao
#6083
0aaaao
#6090
1aaaao
#6091
0aaaao
#6096
1aaaao
#6097
0aaaao
#6098
1aaaao
#6105
0aaaao
#6106
1aaaao
#6113
0aaaao
#6114
1aaaao
#6118
0aaaao
#6125
1aaaao
#6126
0aaaao
#6127
1aaaao
#6131
0aaaao
#6138
1aaaao
#6139
0aaaao
#6140
1aaaao
#6144
0aaaao
#6151
1aaaao
#6152
0aaaao
#6153
1aaaao
#6157
0aaaao
#6164
1aaaao
#6165
0aaaao
#6166
1aaaao
#6170
0aaaao
#6177
1aaaao
#6178
0aaaao
#6179
1aaaao
#6183
0aaaao
#6190
1aaaao
#6191
0aaaao
#6192
1aaaao
#6196
0aaaao
#6203
1aaaao
#6204
0aaaao
#6205
1aaaao
#6209
0aaaao
#6215
1aaaao
#6216
0aaaao
#6221
1aaaao
#6226
0aaaao
#6227
1aaaao
#6230
0aaaao
#6236
1aaaao
#6241
0aaaao
#6242
1aaaao
#6249
0aaaao
#6250
1aaaao
#6257
0aaaao
#6261
1aaaao
#6262
0aaaao
#6263
1aaaao
#6303
0aaaao
#6304
1aaaao
#6311
0aaaao
#6312
1aaaao
#6313
0aaaao
#6314
1aaaao
#6315
0aaaao
#6316
1aaaao
#6328
0aaaao
#6329
1aaaao
#6331
0aaaao
#6332
1aaaao
#6336
0aaaao
#6342
1aaaao
#6343
0aaaao
#6344
1aaaao
#6348
0aaaao
#6354
1aaaao
#6355
0aaaao
#6356
1aaaao
#6360
0aaaao
#6366
1aaaao
#6367
0aaaao
#6368
1aaaao
#6372
0aaaao
#6378
1aaaao
#6379
0aaaao
#6380
1aaaao
#6384
0aaaao
#6390
1aaaao
#6391
0aaaao
#6392
1aaaao
#6396
0aaaao
#6402
1aaaao
#6403
0aaaao
#6404
1aaaao
#6408
0aaaao
#6414
1aaaao
#6415
0aaaao
#6416
1aaaao
#6420
0aaaao
#6427
1aaaao
#6428
0aaaao
#6429
1aaaao
#6430
0aaaao
#6435
1aaaao
#6442
0aaaao
#6443
1aaaao
#6450
0aaaao
#6451
1aaaao
#6455
0aaaao
#6462
1aaaao
#6463
0aaaao
#6464
1aaaao
#6468
0aaaao
#6475
1aaaao
#6476
0aaaao
#6477
1aaaao
#6481
0aaaao
#6730
0aaaae
#6733
1aaaae
#6878
1aaaal
#6890
1aaaao
#6891
0aaaao
#6892
1aaaao
#6896
0aaaao
#6903
1aaaao
#6904
0aaaao
#6905
1aaaao
#6909
0aaaao
#6921
1aaaao
#6922
0aaaao
#6923
1aaaao
#6927
0aaaao
#6939
1aaaao
#6940
0aaaao
#6941
1aaaao
#6945
0aaaao
#6957
1aaaao
#6958
0aaaao
#6959
1aaaao
#6963
0aaaao
#6964
1aaaao
#6965
0aaaao
#6966
1aaaao
#6971
0aaaao
#6972
1aaaao
#6975
0aaaao
#6981
1aaaao
#6986
0aaaao
#6987
1aaaao
#6994
0aaaao
#6995
1aaaao
#7002
0aaaao
#7011
1aaaao
#7022
0aaaao
#7025
1aaaao
#7036
0aaaao
#7037
1aaaao
#7038
0aaaao
#7039
1aaaao
#7040
0aaaal
#7044
0aaaao
#7045
1aaaao
#7060
0aaaao
#7061
1aaaao
#7114
0aaaao
#7115
1aaaao
#7117
0aaaao
#7122
1aaaao
#7127
0aaaao
#7128
1aaaao
#7130
0aaaao
#7135
1aaaao
#7142
0aaaao
#7143
1aaaao
#7148
0aaaao
#7149
1aaaao
#7151
0aaaao
#7162
1aaaao
#7174
0aaaao
#7176
1aaaao
#7178
0aaaao
#7179
1aaaao
#7189
0aaaao
#7190
1aaaao
#7230
0aaaao
#7231
1aaaao
#7232
0aaaao
#7233
1aaaao
#7234
0aaaao
#7235
1aaaao
#7247
0aaaao
#7248
1aaaao
#7250
0aaaao
#7251
1aaaao
#7255
0aaaao
#7646
1aaaal
#7653
1aaaao
#7654
0aaaao
#7655
1aaaao
#7659
0aaaao
#7665
1aaaao
#7666
0aaaao
#7667
1aaaao
#7671
0aaaao
#7677
1aaaao
#7678
0aaaao
#7679
1aaaao
#7683
0aaaao
#7689
1aaaao
#7690
0aaaao
#7691
1aaaao
#7695
0aaaao
#7701
1aaaao
#7702
0aaaao
#7703
1aaaao
#7707
0aaaao
#7713
1aaaao
#7714
0aaaao
#7715
1aaaao
#7719
0aaaao
#7725
1aaaao
#7726
0aaaao
#7727
1aaaao
#7731
0aaaao
#7738
1aaaao
#7739
0aaaao
#7744
1aaaao
#7745
0aaaao
#7761
1aaaao
#7768
0aaaao
#7769
1aaaao
#7771
0aaaao
#7776
1aaaao
#7778
0aaaae
#7781
0aaaao
#7782
1aaaao
#7786
0aaaao
#7799
1aaaao
#7800
0aaaao
#7801
1aaaao
#7805
0aaaao
#7817
1aaaao
#7818
0aaaao
#7819
1aaaao
#7823
0aaaao
#7830
1aaaao
#7831
0aaaao
#7832
1aaaao
#7836
0aaaao
#7848
1aaaao
#7849
0aaaao
#7850
1aaaao
#7854
0aaaao
#7868
1aaaao
#7869
0aaaao
#7870
1aaaao
#7874
0aaaao
#7900
1aaaao
#7901
0aaaao
#7902
1aaaao
#7906
0aaaao
#7930
1aaaae
#7932
1aaaao
#7933
0aaaao
#7934
1aaaao
#7938
0aaaao
#7941
1aaaao
#7942
0aaaao
#7947
1aaaao
#7952
0aaaao
#7953
1aaaao
#7954
0aaaao
#7958
1aaaao
#7960
0aaaao
#7966
1aaaao
#7971
0aaaao
#7972
1aaaao
#7979
0aaaao
#7980
1aaaao
#7987
0aaaao
#7991
1aaaao
#7992
0aaaao
#7993
1aaaao
#8032
0aaaao
#8036
1aaaao
#8041
0aaaao
#8042
1aaaao
#8043
0aaaao
#8044
1aaaao
#8045
0aaaao
#8046
1aaaao
#8058
0aaaao
#8059
1aaaao
#8061
0aaaao
#8062
1aaaao
#8066
0aaaao
#8067
1aaaao
#8068
0aaaao
#8069
1aaaao
#8073
0aaaao
#8079
1aaaao
#8080
0aaaao
#8081
1aaaao
#8085
0aaaao
#8091
1aaaao
#8092
0aaaao
#8093
1aaaao
#8097
0aaaao
#8103
1aaaao
#8104
0aaaao
#8105
1aaaao
#8109
0aaaao
#8115
1aaaao
#8116
0aaaao
#8117
1aaaao
#8121
0aaaao
#8127
1aaaao
#8128
0aaaao
#8129
1aaaao
#8133
0aaaao
#8139
1aaaao
#8140
0aaaao
#8141
1aaaao
#8145
0aaaao
#8152
1aaaao
#8153
0aaaao
#8154
1aaaao
#8155
0aaaao
#8160
1aaaao
#8167
0aaaao
#8168
1aaaao
#8175
0aaaao
#8176
1aaaao
#8180
0aaaao
#8189
1aaaao
#8190
0aaaao
#8191
1aaaao
#8195
0aaaao
#8202
1aaaao
#8203
0aaaao
#8204
1aaaao
#8208
0aaaao
#8319
0aaaal
#8434
1aaaao
#8435
0aaaao
#8436
1aaaao
#8440
0aaaao
#8975
0aaaae
#8978
1aaaae
1aaaal
#8986
1aaaao
#8987
0aaaao
#8988
1aaaao
#8992
0aaaao
#8999
1aaaao
#9000
0aaaao
#9001
1aaaao
#9005
0aaaao
#9012
1aaaao
#9013
0aaaao
#9014
1aaaao
#9018
0aaaao
#9025
1aaaao
#9026
0aaaao
#9027
1aaaao
#9031
0aaaao
#9037
1aaaao
#9038
0aaaao
#9039
1aaaao
#9044
0aaaao
#9045
1aaaao
#9048
0aaaao
#9054
1aaaao
#9059
0aaaao
#9060
1aaaao
#9067
0aaaao
#9068
1aaaao
#9075
0aaaao
#9084
1aaaao
#9095
0aaaao
#9098
1aaaao
#9109
0aaaao
#9110
1aaaao
#9111
0aaaao
#9112
1aaaao
#9117
0aaaao
#9118
1aaaao
#9133
0aaaao
#9134
1aaaao
#9187
0aaaao
#9188
1aaaao
#9190
0aaaao
#9195
1aaaao
#9200
0aaaam
0aaaao
#9201
1aaaao
#9210
0aaaao
#9211
1aaaam
1aaaao
#9216
0aaaao
#9217
1aaaao
#9219
0aaaao
#9230
1aaaao
#9242
0aaaao
#9244
1aaaao
#9246
0aaaao
#9247
1aaaao
#9257
0aaaao
#9258
1aaaao
#9298
0aaaao
#9299
1aaaao
#9300
0aaaao
#9301
1aaaao
#9302
0aaaao
#9303
1aaaao
#9315
0aaaao
#9316
1aaaao
#9318
0aaaao
#9319
1aaaao
#9323
0aaaao
#9329
1aaaao
#9330
0aaaao
#9331
1aaaao
#9335
0aaaao
#9341
1aaaao
#9342
0aaaao
#9343
1aaaao
#9347
0aaaao
#9353
1aaaao
#9354
0aaaao
#9355
1aaaao
#9359
0aaaao
#9365
1aaaao
#9366
0aaaao
#9367
1aaaao
#9371
0aaaao
#9377
1aaaao
#9378
0aaaao
#9379
1aaaao
#9383
0aaaao
#9389
1aaaao
#9390
0aaaao
#9391
1aaaao
#9395
0aaaao
#9396
1aaaao
#9397
0aaaao
#9398
1aaaao
#9402
0aaaao
#9409
1aaaao
#9410
0aaaao
#9415
1aaaao
#9416
0aaaao
#9417
1aaaao
#9424
0aaaao
#9425
1aaaao
#9427
0aaaao
#9432
1aaaao
#9437
0aaaao
#9438
1aaaao
#9442
0aaaao
#9449
1aaaao
#9450
0aaaao
#9451
1aaaao
#9455
0aaaao
#9518
0aaaal
#10023
0aaaae
#10026
1aaaae
1aaaal
#10034
1aaaao
#10035
0aaaao
#10036
1aaaao
#10040
0aaaao
#10047
1aaaao
#10048
0aaaao
#10049
1aaaao
#10053
0aaaao
#10060
1aaaao
#10061
0aaaao
#10062
1aaaao
#10066
0aaaao
#10073
1aaaao
#10074
0aaaao
#10075
1aaaao
#10079
0aaaao
#10086
1aaaao
#10087
0aaaao
#10088
1aaaao
#10092
0aaaao
#10099
1aaaao
#10100
0aaaao
#10101
1aaaao
#10105
0aaaao
#10111
1aaaao
#10112
0aaaao
#10117
1aaaao
#10122
0aaaao
#10123
1aaaao
#10126
0aaaao
#10132
1aaaao
#10137
0aaaao
#10138
1aaaao
#10145
0aaaao
#10146
1aaaao
#10153
0aaaao
#10157
1aaaao
#10158
0aaaao
#10159
1aaaao
#10198
0aaaao
#10202
1aaaao
#10207
0aaaao
#10208
1aaaao
#10209
0aaaao
#10210
1aaaao
#10211
0aaaao
#10212
1aaaao
#10224
0aaaao
#10225
1aaaao
#10227
0aaaao
#10228
1aaaao
#10232
0aaaao
#10233
1aaaao
#10234
0aaaao
#10235
1aaaao
#10239
0aaaao
#10245
1aaaao
#10246
0aaaao
#10247
1aaaao
#10251
0aaaao
#10257
1aaaao
#10258
0aaaao
#10259
1aaaao
#10263
0aaaao
#10269
1aaaao
#10270
0aaaao
#10271
1aaaao
#10275
0aaaao
#10281
1aaaao
#10282
0aaaao
#10283
1aaaao
#10287
0aaaao
#10293
1aaaao
#10294
0aaaao
#10295
1aaaao
#10299
0aaaao
#10300
1aaaao
#10301
0aaaao
#10302
1aaaao
#10306
0aaaao
#10313
1aaaao
#10314
0aaaao
#10315
1aaaao
#10316
0aaaao
#10321
1aaaao
#10328
0aaaao
#10329
1aaaao
#10336
0aaaao
#10337
1aaaao
#10341
0aaaao
#10348
1aaaao
#10349
0aaaao
#10350
1aaaao
#10354
0aaaao
#10361
1aaaao
#10362
0aaaao
#10363
1aaaao
#10367
0aaaao
#10374
1aaaao
#10375
0aaaao
#10376
1aaaao
#10380
0aaaao
#10445
0aaaal
#10964
0aaaam
#11071
0aaaae
#11074
1aaaae
1aaaal
#11082
1aaaao
#11083
0aaaao
#11084
1aaaao
#11088
0aaaao
#11095
1aaaao
#11096
0aaaao
#11097
1aaaao
#11101
0aaaao
#11108
1aaaao
#11109
0aaaao
#11110
1aaaao
#11114
0aaaao
#11121
1aaaao
#11122
0aaaao
#11123
1aaaao
#11127
0aaaao
#11133
1aaaao
#11134
0aaaao
#11135
1aaaao
#11140
0aaaao
#11141
1aaaao
#11144
0aaaao
#11150
1aaaao
#11155
0aaaao
#11156
1aaaao
#11163
0aaaao
#11164
1aaaao
#11171
0aaaao
#11180
1aaaao
#11208
0aaaao
#11209
1aaaao
#11216
0aaaao
#11217
1aaaao
#11224
0aaaao
#11226
1aaaao
#11247
0aaaao
#11248
1aaaao
#11275
0aaaao
#11276
1aaaao
#11277
0aaaao
#11278
1aaaao
#11299
0aaaao
#11300
1aaaao
#11301
0aaaao
#11302
1aaaao
#11308
0aaaao
#11309
1aaaao
#11314
0aaaao
#11315
1aaaao
#11337
0aaaao
#11338
1aaaao
#11339
0aaaao
#11340
1aaaao
#11348
0aaaao
#11349
1aaaao
#11354
0aaaao
#11355
1aaaao
#11361
0aaaao
#11362
1aaaao
#11368
0aaaao
#11369
1aaaao
#11493
0aaaal
#11525
0aaaao
#11526
1aaaao
#11579
0aaaao
#11580
1aaaao
#11582
0aaaao
#11587
1aaaao
#11592
0aaaao
#11593
1aaaao
#11595
0aaaao
#11600
1aaaao
#11607
0aaaao
#11608
1aaaam
1aaaao
#11613
0aaaao
#11614
1aaaao
#11616
0aaaao
#11620
1aaaao
#11632
0aaaao
#11634
1aaaao
#11636
0aaaao
#11637
1aaaao
#11647
0aaaao
#11648
1aaaao
#11688
0aaaao
#11689
1aaaao
#11690
0aaaao
#11691
1aaaao
#11692
0aaaao
#11693
1aaaao
#11705
0aaaao
#11706
1aaaao
#11708
0aaaao
#11709
1aaaao
#11713
0aaaao
#11719
1aaaao
#11720
0aaaao
#11721
1aaaao
#11725
0aaaao
#11731
1aaaao
#11732
0aaaao
#11733
1aaaao
#11737
0aaaao
#11743
1aaaao
#11744
0aaaao
#11745
1aaaao
#11749
0aaaao
#11755
1aaaao
#11756
0aaaao
#11757
1aaaao
#11761
0aaaao
#11767
1aaaao
#11768
0aaaao
#11769
1aaaao
#11773
0aaaao
#11779
1aaaao
#11780
0aaaao
#11781
1aaaao
#11785
0aaaao
#11786
1aaaao
#11787
0aaaao
#11788
1aaaao
#11792
0aaaao
#11801
1aaaao
#11802
0aaaao
#11807
1aaaao
#11808
0aaaao
#11809
1aaaao
#11816
0aaaao
#11817
1aaaao
#11819
0aaaao
#11824
1aaaao
#11829
0aaaao
#11830
1aaaao
#11834
0aaaao
#11841
1aaaao
#11842
0aaaao
#11843
1aaaao
#11847
0aaaao
#12119
0aaaae
#12122
1aaaae
1aaaal
#12130
1aaaao
#12131
0aaaao
#12132
1aaaao
#12136
0aaaao
#12143
1aaaao
#12144
0aaaao
#12145
1aaaao
#12149
0aaaao
#12156
1aaaao
#12157
0aaaao
#12158
1aaaao
#12162
0aaaao
#12169
1aaaao
#12170
0aaaao
#12171
1aaaao
#12175
0aaaao
#12182
1aaaao
#12183
0aaaao
#12184
1aaaao
#12188
0aaaao
#12195
1aaaao
#12196
0aaaao
#12197
1aaaao
#12201
0aaaao
#12207
1aaaao
#12208
0aaaao
#12213
1aaaao
#12218
0aaaao
#12219
1aaaao
#12222
0aaaao
#12223
1aaaao
#12228
0aaaao
#12231
1aaaao
#12236
0aaaao
#12237
1aaaao
#12244
0aaaao
#12245
1aaaao
#12252
0aaaao
#12256
1aaaao
#12257
0aaaao
#12258
1aaaao
#12301
0aaaao
#12302
1aaaao
#12303
0aaaao
#12304
1aaaao
#12305
0aaaao
#12306
1aaaao
#12318
0aaaao
#12319
1aaaao
#12321
0aaaao
#12322
1aaaao
#12326
0aaaao
#12332
1aaaao
#12333
0aaaao
#12334
1aaaao
#12338
0aaaao
#12344
1aaaao
#12345
0aaaao
#12346
1aaaao
#12350
0aaaao
#12351
1aaaao
#12352
0aaaao
#12353
1aaaao
#12357
0aaaao
#12363
1aaaao
#12364
0aaaao
#12365
1aaaao
#12369
0aaaao
#12375
1aaaao
#12376
0aaaao
#12377
1aaaao
#12381
0aaaao
#12387
1aaaao
#12388
0aaaao
#12389
1aaaao
#12393
0aaaao
#12394
1aaaao
#12395
0aaaao
#12396
1aaaao
#12400
0aaaao
#12409
1aaaao
#12410
0aaaao
#12411
1aaaao
#12412
0aaaao
#12417
1aaaao
#12424
0aaaao
#12425
1aaaao
#12432
0aaaao
#12433
1aaaao
#12437
0aaaao
#12444
1aaaao
#12445
0aaaao
#12446
1aaaao
#12450
0aaaao
#12457
1aaaao
#12458
0aaaao
#12459
1aaaao
#12463
0aaaao
#12541
0aaaal
#12596
1aaaao
#12597
0aaaao
#12598
1aaaao
#12602
0aaaao
#13167
0aaaae
#13170
1aaaae
1aaaal
#13178
1aaaao
#13179
0aaaao
#13180
1aaaao
#13184
0aaaao
#13191
1aaaao
#13192
0aaaao
#13193
1aaaao
#13197
0aaaao
#13204
1aaaao
#13205
0aaaao
#13206
1aaaao
#13210
0aaaao
#13217
1aaaao
#13218
0aaaao
#13219
1aaaao
#13223
0aaaao
#13229
1aaaao
#13230
0aaaao
#13231
1aaaao
#13236
0aaaao
#13237
1aaaao
#13238
0aaaao
#13256
1aaaao
#13258
0aaaao
#13264
1aaaao
#13269
0aaaao
#13270
1aaaao
#13277
0aaaao
#13278
1aaaao
#13285
0aaaao
#13294
1aaaao
#13305
0aaaao
#13308
1aaaao
#13319
0aaaao
#13320
1aaaao
#13321
0aaaao
#13322
1aaaao
#13327
0aaaao
#13328
1aaaao
#13343
0aaaao
#13344
1aaaao
#13367
0aaaam
#13397
0aaaao
#13398
1aaaao
#13400
0aaaao
#13405
1aaaao
#13410
0aaaao
#13411
1aaaao
#13420
0aaaao
#13421
1aaaam
1aaaao
#13426
0aaaao
#13427
1aaaao
#13429
0aaaao
#13440
1aaaao
#13452
0aaaao
#13454
1aaaao
#13456
0aaaao
#13457
1aaaao
#13467
0aaaao
#13468
1aaaao
#13508
0aaaao
#13509
1aaaao
#13510
0aaaao
#13511
1aaaao
#13512
0aaaao
#13513
1aaaao
#13525
0aaaao
#13526
1aaaao
#13528
0aaaao
#13529
1aaaao
#13533
0aaaao
#13539
1aaaao
#13540
0aaaao
#13541
1aaaao
#13545
0aaaao
#13551
1aaaao
#13552
0aaaao
#13553
1aaaao
#13557
0aaaao
#13563
1aaaao
#13564
0aaaao
#13565
1aaaao
#13569
0aaaao
#13575
1aaaao
#13576
0aaaao
#13577
1aaaao
#13581
0aaaao
#13582
1aaaao
#13583
0aaaao
#13584
1aaaao
#13588
0aaaao
#13594
1aaaao
#13595
0aaaao
#13596
1aaaao
#13600
0aaaao
#13601
1aaaao
#13602
0aaaao
#13603
1aaaao
#13607
0aaaao
#13616
1aaaao
#13617
0aaaao
#13622
1aaaao
#13623
0aaaao
#13624
1aaaao
#13631
0aaaao
#13632
1aaaao
#13634
0aaaao
#13639
1aaaao
#13644
0aaaao
#13645
1aaaao
#13649
0aaaao
#13656
1aaaao
#13657
0aaaao
#13658
1aaaao
#13662
0aaaao
#13712
0aaaal
#14215
0aaaae
#14218
1aaaal
#14219
1aaaan
#14220
1aaaae
#14226
1aaaao
#14227
0aaaao
#14228
1aaaao
#14231
1aaaaa
#14232
0aaaao
#14239
1aaaao
#14240
0aaaao
#14241
1aaaao
#14245
0aaaao
#14252
1aaaao
#14253
0aaaao
#14254
1aaaao
#14258
0aaaao
#14265
1aaaao
#14266
0aaaao
#14267
1aaaao
#14271
0aaaao
#14278
1aaaao
#14279
0aaaao
#14280
1aaaao
#14284
0aaaao
#14291
1aaaao
#14292
0aaaao
#14293
1aaaao
#14297
0aaaao
#14303
1aaaao
#14304
0aaaao
#14309
1aaaao
#14314
0aaaao
#14315
1aaaao
#14318
0aaaao
#14324
1aaaao
#14329
0aaaao
#14330
1aaaao
#14337
0aaaao
#14338
1aaaao
#14345
0aaaao
#14349
1aaaao
#14350
0aaaao
#14351
1aaaao
#14390
0aaaao
#14394
1aaaao
#14399
0aaaao
#14400
1aaaao
#14401
0aaaao
#14402
1aaaao
#14403
0aaaao
#14404
1aaaao
#14416
0aaaao
#14417
1aaaao
#14419
0aaaao
#14420
1aaaao
#14424
0aaaao
#14425
1aaaao
#14426
0aaaao
#14427
1aaaao
#14431
0aaaao
#14437
1aaaao
#14438
0aaaao
#14439
1aaaao
#14443
0aaaao
#14449
1aaaao
#14450
0aaaao
#14451
1aaaao
#14455
0aaaao
#14461
1aaaao
#14462
0aaaao
#14463
1aaaao
#14467
0aaaao
#14473
1aaaao
#14474
0aaaao
#14475
1aaaao
#14479
0aaaao
#14485
1aaaao
#14486
0aaaao
#14487
1aaaao
#14491
0aaaao
#14492
1aaaao
#14493
0aaaao
#14494
1aaaao
#14498
0aaaao
#14507
1aaaao
#14508
0aaaao
#14509
1aaaao
#14510
0aaaao
#14515
1aaaao
#14522
0aaaao
#14523
1aaaao
#14530
0aaaao
#14531
1aaaao
#14535
0aaaao
#14542
1aaaao
#14543
0aaaao
#14544
1aaaao
#14548
0aaaao
#14555
1aaaao
#14556
0aaaao
#14557
1aaaao
#14561
0aaaao
#14568
1aaaao
#14569
0aaaao
#14570
1aaaao
#14574
0aaaao
#14637
0aaaal
#14743
0aaaaa
#14801
0aaaan
#15179
0aaaam
#15265
0aaaae
#15268
1aaaae
1aaaal
#15276
1aaaao
#15277
0aaaao
#15278
1aaaao
#15282
0aaaao
#15289
1aaaao
#15290
0aaaao
#15291
1aaaao
#15295
0aaaao
#15302
1aaaao
#15303
0aaaao
#15304
1aaaao
#15308
0aaaao
#15315
1aaaao
#15316
0aaaao
#15317
1aaaao
#15321
0aaaao
#15327
1aaaao
#15328
0aaaao
#15329
1aaaao
#15334
0aaaao
#15335
1aaaao
#15338
0aaaao
#15344
1aaaao
#15349
0aaaao
#15350
1aaaao
#15357
0aaaao
#15358
1aaaao
#15365
0aaaao
#15374
1aaaao
#15385
0aaaao
#15388
1aaaao
#15399
0aaaao
#15400
1aaaao
#15401
0aaaao
#15402
1aaaao
#15407
0aaaao
#15408
1aaaao
#15423
0aaaao
#15424
1aaaao
#15477
0aaaao
#15478
1aaaao
#15480
0aaaao
#15485
1aaaao
#15490
0aaaao
#15491
1aaaao
#15500
0aaaao
#15501
1aaaam
1aaaao
#15506
0aaaao
#15507
1aaaao
